[
    {"location":{"coords":{"speed":-1,"longitude":-122.266624,"floor":null,"latitude":37.810623,"accuracy":65,"altitude_accuracy":10,"altitude":4.7,"heading":-1},"extras":{},"is_moving":true,"event":"motionchange","odometer":99.2,"uuid":"96FEC63D-64EC-4E47-8720-41005A1B2CFC","activity":{"type":"still","confidence":33},"battery":{"level":0.54,"is_charging":false},"timestamp":"2018-07-02T23:15:47.193Z"},"device":{"version":"11.4","manufacturer":"Apple","model":"iPhone 7","framework":"ReactNative","uuid":"FB24E585-6B69-421F-8BB7-8FF0B0BA4BFD","platform":"iOS"}},
    {"location":{"coords":{"speed":0,"longitude":-122.26659,"floor":null,"latitude":37.810703,"accuracy":50,"altitude_accuracy":8,"altitude":9.8,"heading":-1},"extras":{},"is_moving":true,"odometer":108.8,"uuid":"C4B3A29F-8761-4C5C-8566-F5D9FE4FBFE7","activity":{"type":"still","confidence":33},"battery":{"level":0.54,"is_charging":false},"timestamp":"2018-07-02T23:15:52.998Z"},"device":{"version":"11.4","manufacturer":"Apple","model":"iPhone 7","framework":"ReactNative","uuid":"FB24E585-6B69-421F-8BB7-8FF0B0BA4BFD","platform":"iOS"}},
    {"location":{"coords":{"speed":0,"longitude":-122.2665,"floor":null,"latitude":37.81061,"accuracy":30,"altitude_accuracy":3,"altitude":5.9,"heading":-1},"extras":{},"is_moving":true,"odometer":121,"uuid":"EDA80464-0376-486B-ABC5-D93196E8CE56","activity":{"type":"still","confidence":33},"battery":{"level":0.54,"is_charging":false},"timestamp":"2018-07-02T23:15:53.998Z"},"device":{"version":"11.4","manufacturer":"Apple","model":"iPhone 7","framework":"ReactNative","uuid":"FB24E585-6B69-421F-8BB7-8FF0B0BA4BFD","platform":"iOS"}}, 
    {"location":{"coords":{"speed":0,"longitude":-122.266335,"floor":null,"latitude":37.81046,"accuracy":30,"altitude_accuracy":3,"altitude":5.9,"heading":-1},"extras":{},"is_moving":true,"odometer":143.6,"uuid":"0A50A5C8-4678-4AA7-8C6E-0DEF75AB1887","activity":{"type":"still","confidence":33},"battery":{"level":0.54,"is_charging":false},"timestamp":"2018-07-02T23:15:55.999Z"},"device":{"version":"11.4","manufacturer":"Apple","model":"iPhone 7","framework":"ReactNative","uuid":"FB24E585-6B69-421F-8BB7-8FF0B0BA4BFD","platform":"iOS"}}, 
    {"location":{"coords":{"speed":0.54,"longitude":-122.26637,"floor":null,"latitude":37.81078,"accuracy":30,"altitude_accuracy":3,"altitude":6,"heading":-1},"extras":{},"is_moving":true,"odometer":179.5,"uuid":"AFB7AA2B-26C0-470E-9ADD-DCD6125821FF","activity":{"type":"still","confidence":33},"battery":{"level":0.54,"is_charging":false},"timestamp":"2018-07-02T23:15:56.999Z"},"device":{"version":"11.4","manufacturer":"Apple","model":"iPhone 7","framework":"ReactNative","uuid":"FB24E585-6B69-421F-8BB7-8FF0B0BA4BFD","platform":"iOS"}}, 
    {"location":{"coords":{"speed":0.54,"longitude":-122.266426,"floor":null,"latitude":37.81094,"accuracy":10,"altitude_accuracy":3,"altitude":6.1,"heading":-1},"extras":{},"is_moving":true,"odometer":197.8,"uuid":"EC63F451-5470-472F-B8D5-D01269E9CBEE","activity":{"type":"still","confidence":33},"battery":{"level":0.54,"is_charging":false},"timestamp":"2018-07-02T23:15:57.999Z"},"device":{"version":"11.4","manufacturer":"Apple","model":"iPhone 7","framework":"ReactNative","uuid":"FB24E585-6B69-421F-8BB7-8FF0B0BA4BFD","platform":"iOS"}}, 
    {"location":{"coords":{"speed":2.32,"longitude":-122.266426,"floor":null,"latitude":37.811043,"accuracy":30,"altitude_accuracy":3,"altitude":6.1,"heading":21.8},"extras":{},"is_moving":true,"odometer":209.2,"uuid":"B5E88933-72C6-4EB4-BED7-BAD698E12DB6","activity":{"type":"still","confidence":33},"battery":{"level":0.54,"is_charging":false},"timestamp":"2018-07-02T23:16:01.999Z"},"device":{"version":"11.4","manufacturer":"Apple","model":"iPhone 7","framework":"ReactNative","uuid":"FB24E585-6B69-421F-8BB7-8FF0B0BA4BFD","platform":"iOS"}},
    {"location":{"coords":{"speed":1.21,"longitude":-122.26638,"floor":null,"latitude":37.810814,"accuracy":10,"altitude_accuracy":3,"altitude":6.2,"heading":312.54},"extras":{},"is_moving":true,"odometer":234.9,"uuid":"19196955-B0FE-471B-92AA-A7FD19F8DE20","activity":{"type":"still","confidence":33},"battery":{"level":0.54,"is_charging":false},"timestamp":"2018-07-02T23:16:03.999Z"},"device":{"version":"11.4","manufacturer":"Apple","model":"iPhone 7","framework":"ReactNative","uuid":"FB24E585-6B69-421F-8BB7-8FF0B0BA4BFD","platform":"iOS"}},
    {"location":{"coords":{"speed":0.77,"longitude":-122.266426,"floor":null,"latitude":37.81072,"accuracy":10,"altitude_accuracy":4,"altitude":6.9,"heading":260.86},"extras":{},"is_moving":true,"odometer":246.3,"uuid":"CA22D0E5-343D-47AF-BD4E-361935D8F88F","activity":{"type":"still","confidence":33},"battery":{"level":0.53,"is_charging":false},"timestamp":"2018-07-02T23:16:10.000Z"},"device":{"version":"11.4","manufacturer":"Apple","model":"iPhone 7","framework":"ReactNative","uuid":"FB24E585-6B69-421F-8BB7-8FF0B0BA4BFD","platform":"iOS"}},
    {"location":{"coords":{"speed":0.36,"longitude":-122.266396,"floor":null,"latitude":37.81063,"accuracy":37.4,"altitude_accuracy":4,"altitude":8.8,"heading":100.55},"extras":{},"is_moving":true,"odometer":256.6,"uuid":"AE33DBE2-EE17-4D6C-95C0-F74DC81C07BC","activity":{"type":"on_foot","confidence":66},"battery":{"level":0.53,"is_charging":false},"timestamp":"2018-07-02T23:16:45.000Z"},"device":{"version":"11.4","manufacturer":"Apple","model":"iPhone 7","framework":"ReactNative","uuid":"FB24E585-6B69-421F-8BB7-8FF0B0BA4BFD","platform":"iOS"}},
    {"location":{"coords":{"speed":0.5,"longitude":-122.2664,"floor":null,"latitude":37.810616,"accuracy":60.4,"altitude_accuracy":4,"altitude":9.7,"heading":168.05},"extras":{},"is_moving":false,"event":"motionchange","odometer":258.4,"uuid":"A0E5E7F1-EF4C-4A4E-BD33-8851D9966D6C","activity":{"type":"on_foot","confidence":100},"battery":{"level":0.53,"is_charging":false},"timestamp":"2018-07-02T23:16:53.000Z"},"device":{"version":"11.4","manufacturer":"Apple","model":"iPhone 7","framework":"ReactNative","uuid":"FB24E585-6B69-421F-8BB7-8FF0B0BA4BFD","platform":"iOS"}}
]